/* XPM */
static char * title_1_inactive_xpm[] = {
"2 26 3 1",
" 	c None",
".	c #1F1F1F",
"+	c #2E2E2E",
"..",
"++",
"++",
"++",
"++",
"++",
"++",
"++",
"++",
"++",
"++",
"++",
"++",
"++",
"++",
"++",
"++",
"++",
"++",
"++",
"++",
"++",
"++",
"++",
"++",
"++"};
