/* XPM */
static char * top_right_active_xpm[] = {
"2 26 4 1",
" 	c None",
".	c #3C3C3C",
"+	c #1E1E1E",
"@	c #2E2E2E",
". ",
"+.",
"@.",
"@.",
"@.",
"@.",
"@.",
"@.",
"@.",
"@.",
"@.",
"@.",
"@.",
"@.",
"@.",
"@.",
"@.",
"@.",
"@.",
"@.",
"@.",
"@.",
"@.",
"@.",
"@.",
"@."};
